Scraping data from Basketball-Reference | Peter Tea
…
my_data <- as_tibble(my_data)

my_data <- my_data %>%
  mutate(FP = -0.2*MP - 0.5*FGA + 
           0.75*Threes_made + PTS +
           1.5*ORB + DRB + 1.5*AST +
           2.5*STL + 2.5*BLK - TOV)

my_data %>%
  select(Player, Tm, FP) %>%
  arrange(desc(FP))

## # A tibble: 456 x 3
##    Player                Tm       FP
##    <chr>                 <chr> <dbl>
##  1 Giannis Antetokounmpo MIL    42.7
##  2 Luka Dončić           DAL    40.3
##  3 James Harden          HOU    40.0
##  4 Karl-Anthony Towns    MIN    37.1
##  5 LeBron James          LAL    35.8
##  6 Anthony Davis         LAL    34.6
##  7 Andre Drummond        DET    32.3
##  8 Kyrie Irving          BRK    30.6
##  9 Damian Lillard        POR    30.4
## 10 Kawhi Leonard         LAC    30.4
## # … with 446 more rows
…
