Metadata_US_Economy
…
#Recession

recessions_tidy <- fred_raw %>% 
  filter(symbol == "USREC") %>% 
  mutate(recession_change = price - lag(price))
recessions_tidy

## # A tibble: 365 x 4
##    symbol date       price recession_change
##    <chr>  <date>     <dbl>            <dbl>
##  1 USREC  1990-01-01     0               NA
##  2 USREC  1990-02-01     0                0
##  3 USREC  1990-03-01     0                0
##  4 USREC  1990-04-01     0                0
##  5 USREC  1990-05-01     0                0
##  6 USREC  1990-06-01     0                0
##  7 USREC  1990-07-01     0                0
##  8 USREC  1990-08-01     1                1
##  9 USREC  1990-09-01     1                0
## 10 USREC  1990-10-01     1                0
## # ... with 355 more rows
…
#Retail Sales

options(scipen=999)
retail_sales <- fred_raw %>% 
  filter(symbol == "RSXFSN")

retail_sales

## # A tibble: 340 x 3
##    symbol date        price
##    <chr>  <date>      <dbl>
##  1 RSXFSN 1992-01-01 130683
##  2 RSXFSN 1992-02-01 131244
##  3 RSXFSN 1992-03-01 142488
##  4 RSXFSN 1992-04-01 147175
##  5 RSXFSN 1992-05-01 152420
##  6 RSXFSN 1992-06-01 151849
##  7 RSXFSN 1992-07-01 152586
##  8 RSXFSN 1992-08-01 152476
##  9 RSXFSN 1992-09-01 148158
## 10 RSXFSN 1992-10-01 155987
## # ... with 330 more rows
…
options(scipen=999)
unemployment_claims_only <- fred_raw %>% 
  filter(symbol == "ICSA")

unemployment_claims_only

## # A tibble: 1,586 x 3
##    symbol date        price
##    <chr>  <date>      <dbl>
##  1 ICSA   1990-01-06 355000
##  2 ICSA   1990-01-13 369000
##  3 ICSA   1990-01-20 375000
##  4 ICSA   1990-01-27 345000
##  5 ICSA   1990-02-03 368000
##  6 ICSA   1990-02-10 367000
##  7 ICSA   1990-02-17 348000
##  8 ICSA   1990-02-24 350000
##  9 ICSA   1990-03-03 351000
## 10 ICSA   1990-03-10 349000
## # ... with 1,576 more rows
…
options(scipen=999)
Unemployment_Rate <- fred_raw %>% 
  filter(symbol == "UNRATE")

Unemployment_Rate

## # A tibble: 364 x 3
##    symbol date       price
##    <chr>  <date>     <dbl>
##  1 UNRATE 1990-01-01   5.4
##  2 UNRATE 1990-02-01   5.3
##  3 UNRATE 1990-03-01   5.2
##  4 UNRATE 1990-04-01   5.4
##  5 UNRATE 1990-05-01   5.4
##  6 UNRATE 1990-06-01   5.2
##  7 UNRATE 1990-07-01   5.5
##  8 UNRATE 1990-08-01   5.7
##  9 UNRATE 1990-09-01   5.9
## 10 UNRATE 1990-10-01   5.9
## # ... with 354 more rows
…
options(scipen=999)
Inflation <- fred_raw %>% 
  filter(symbol == "FPCPITOTLZGUSA")

Inflation

## # A tibble: 30 x 3
##    symbol         date       price
##    <chr>          <date>     <dbl>
##  1 FPCPITOTLZGUSA 1990-01-01  5.40
##  2 FPCPITOTLZGUSA 1991-01-01  4.23
##  3 FPCPITOTLZGUSA 1992-01-01  3.03
##  4 FPCPITOTLZGUSA 1993-01-01  2.95
##  5 FPCPITOTLZGUSA 1994-01-01  2.61
##  6 FPCPITOTLZGUSA 1995-01-01  2.81
##  7 FPCPITOTLZGUSA 1996-01-01  2.93
##  8 FPCPITOTLZGUSA 1997-01-01  2.34
##  9 FPCPITOTLZGUSA 1998-01-01  1.55
## 10 FPCPITOTLZGUSA 1999-01-01  2.19
## # ... with 20 more rows
…
options(scipen=999)
Trade_Balance_Good_Services_Payment_Basis <- fred_raw %>% 
  filter(symbol == "BOPGSTB")

Trade_Balance_Good_Services_Payment_Basis

## # A tibble: 339 x 3
##    symbol  date       price
##    <chr>   <date>     <dbl>
##  1 BOPGSTB 1992-01-01 -2026
##  2 BOPGSTB 1992-02-01  -831
##  3 BOPGSTB 1992-03-01 -2641
##  4 BOPGSTB 1992-04-01 -3109
##  5 BOPGSTB 1992-05-01 -3919
##  6 BOPGSTB 1992-06-01 -2824
##  7 BOPGSTB 1992-07-01 -2781
##  8 BOPGSTB 1992-08-01 -4455
##  9 BOPGSTB 1992-09-01 -3530
## 10 BOPGSTB 1992-10-01 -3520
## # ... with 329 more rows
…
options(scipen=999)
Export_Balance_Good_Services_Payment_Basis <- fred_raw %>% 
  filter(symbol == "BOPTEXP")

Export_Balance_Good_Services_Payment_Basis

## # A tibble: 339 x 3
##    symbol  date       price
##    <chr>   <date>     <dbl>
##  1 BOPTEXP 1992-01-01 50251
##  2 BOPTEXP 1992-02-01 51682
##  3 BOPTEXP 1992-03-01 50294
##  4 BOPTEXP 1992-04-01 50302
##  5 BOPTEXP 1992-05-01 50044
##  6 BOPTEXP 1992-06-01 51727
##  7 BOPTEXP 1992-07-01 52533
##  8 BOPTEXP 1992-08-01 50940
##  9 BOPTEXP 1992-09-01 51984
## 10 BOPTEXP 1992-10-01 53035
## # ... with 329 more rows
…
options(scipen=999)
Import_Balance_Good_Services_Payment_Basis <- fred_raw %>% 
  filter(symbol == "BOPTIMP")

Import_Balance_Good_Services_Payment_Basis

## # A tibble: 339 x 3
##    symbol  date       price
##    <chr>   <date>     <dbl>
##  1 BOPTIMP 1992-01-01 52277
##  2 BOPTIMP 1992-02-01 52513
##  3 BOPTIMP 1992-03-01 52935
##  4 BOPTIMP 1992-04-01 53411
##  5 BOPTIMP 1992-05-01 53963
##  6 BOPTIMP 1992-06-01 54551
##  7 BOPTIMP 1992-07-01 55313
##  8 BOPTIMP 1992-08-01 55395
##  9 BOPTIMP 1992-09-01 55515
## 10 BOPTIMP 1992-10-01 56556
## # ... with 329 more rows
…
options(scipen=999)
Consumer_Sentiment <- fred_raw %>% 
  filter(symbol == "UMCSENT")

Consumer_Sentiment

## # A tibble: 364 x 3
##    symbol  date       price
##    <chr>   <date>     <dbl>
##  1 UMCSENT 1990-01-01  93  
##  2 UMCSENT 1990-02-01  89.5
##  3 UMCSENT 1990-03-01  91.3
##  4 UMCSENT 1990-04-01  93.9
##  5 UMCSENT 1990-05-01  90.6
##  6 UMCSENT 1990-06-01  88.3
##  7 UMCSENT 1990-07-01  88.2
##  8 UMCSENT 1990-08-01  76.4
##  9 UMCSENT 1990-09-01  72.8
## 10 UMCSENT 1990-10-01  63.9
## # ... with 354 more rows
…
#Housing Starts and Building Permits

options(scipen=999)
PERMIT <- fred_raw %>% 
  filter(symbol == "PERMIT")

PERMIT

## # A tibble: 364 x 3
##    symbol date       price
##    <chr>  <date>     <dbl>
##  1 PERMIT 1990-01-01  1748
##  2 PERMIT 1990-02-01  1329
##  3 PERMIT 1990-03-01  1246
##  4 PERMIT 1990-04-01  1136
##  5 PERMIT 1990-05-01  1067
##  6 PERMIT 1990-06-01  1108
##  7 PERMIT 1990-07-01  1078
##  8 PERMIT 1990-08-01  1069
##  9 PERMIT 1990-09-01   976
## 10 PERMIT 1990-10-01   925
## # ... with 354 more rows
…
options(scipen=999)
PI <- fred_raw %>% 
  filter(symbol == "PI")

PI

## # A tibble: 364 x 3
##    symbol date       price
##    <chr>  <date>     <dbl>
##  1 PI     1990-01-01 4788.
##  2 PI     1990-02-01 4823.
##  3 PI     1990-03-01 4846.
##  4 PI     1990-04-01 4886.
##  5 PI     1990-05-01 4891.
##  6 PI     1990-06-01 4920.
##  7 PI     1990-07-01 4948.
##  8 PI     1990-08-01 4950.
##  9 PI     1990-09-01 4978.
## 10 PI     1990-10-01 4965.
## # ... with 354 more rows
…
options(scipen=999)
PCE <- fred_raw %>% 
  filter(symbol == "PCE")

PCE

## # A tibble: 364 x 3
##    symbol date       price
##    <chr>  <date>     <dbl>
##  1 PCE    1990-01-01 3731.
##  2 PCE    1990-02-01 3728.
##  3 PCE    1990-03-01 3755.
##  4 PCE    1990-04-01 3770 
##  5 PCE    1990-05-01 3776.
##  6 PCE    1990-06-01 3804.
##  7 PCE    1990-07-01 3822.
##  8 PCE    1990-08-01 3848.
##  9 PCE    1990-09-01 3870.
## 10 PCE    1990-10-01 3871.
## # ... with 354 more rows
…
options(scipen=999)
DGORDER <- fred_raw %>% 
  filter(symbol == "DGORDER")

DGORDER

## # A tibble: 339 x 3
##    symbol  date        price
##    <chr>   <date>      <dbl>
##  1 DGORDER 1992-02-01 114535
##  2 DGORDER 1992-03-01 120025
##  3 DGORDER 1992-04-01 124470
##  4 DGORDER 1992-05-01 125822
##  5 DGORDER 1992-06-01 122834
##  6 DGORDER 1992-07-01 122590
##  7 DGORDER 1992-08-01 120411
##  8 DGORDER 1992-09-01 120711
##  9 DGORDER 1992-10-01 127392
## 10 DGORDER 1992-11-01 122374
## # ... with 329 more rows
…
options(scipen=999)
T10Y2Y <- fred_raw %>% 
  filter(symbol == "T10Y2Y")

T10Y2Y

## # A tibble: 7,937 x 3
##    symbol date       price
##    <chr>  <date>     <dbl>
##  1 T10Y2Y 1990-01-01 NA   
##  2 T10Y2Y 1990-01-02  0.07
##  3 T10Y2Y 1990-01-03  0.05
##  4 T10Y2Y 1990-01-04  0.06
##  5 T10Y2Y 1990-01-05  0.09
##  6 T10Y2Y 1990-01-08  0.12
##  7 T10Y2Y 1990-01-09  0.11
##  8 T10Y2Y 1990-01-10  0.12
##  9 T10Y2Y 1990-01-11  0.13
## 10 T10Y2Y 1990-01-12  0.17
## # ... with 7,927 more rows
…
options(scipen=999)
TCU <- fred_raw %>% 
  filter(symbol == "TCU")

TCU

## # A tibble: 364 x 3
##    symbol date       price
##    <chr>  <date>     <dbl>
##  1 TCU    1990-01-01  82.3
##  2 TCU    1990-02-01  82.9
##  3 TCU    1990-03-01  83.1
##  4 TCU    1990-04-01  82.9
##  5 TCU    1990-05-01  82.9
##  6 TCU    1990-06-01  83.0
##  7 TCU    1990-07-01  82.7
##  8 TCU    1990-08-01  82.9
##  9 TCU    1990-09-01  82.8
## 10 TCU    1990-10-01  82.1
## # ... with 354 more rows
…
options(scipen=999)
INDPRO <- fred_raw %>% 
  filter(symbol == "INDPRO")

INDPRO

## # A tibble: 364 x 3
##    symbol date       price
##    <chr>  <date>     <dbl>
##  1 INDPRO 1990-01-01  63.4
##  2 INDPRO 1990-02-01  64.0
##  3 INDPRO 1990-03-01  64.4
##  4 INDPRO 1990-04-01  64.3
##  5 INDPRO 1990-05-01  64.4
##  6 INDPRO 1990-06-01  64.6
##  7 INDPRO 1990-07-01  64.5
##  8 INDPRO 1990-08-01  64.7
##  9 INDPRO 1990-09-01  64.8
## 10 INDPRO 1990-10-01  64.3
## # ... with 354 more rows
…
