Google Mobility
…
b

## # A tibble: 32,130 x 7
##    country_region_~ country_region sub_region_1 sub_region_2 date       type 
##    <chr>            <chr>          <chr>        <chr>        <date>     <chr>
##  1 US               United States  Alabama      <NA>         2020-02-15 Reta~
##  2 US               United States  Alabama      <NA>         2020-02-15 Groc~
##  3 US               United States  Alabama      <NA>         2020-02-15 Parks
##  4 US               United States  Alabama      <NA>         2020-02-15 Tran~
##  5 US               United States  Alabama      <NA>         2020-02-15 Work~
##  6 US               United States  Alabama      <NA>         2020-02-15 Resi~
##  7 US               United States  Alabama      <NA>         2020-02-16 Reta~
##  8 US               United States  Alabama      <NA>         2020-02-16 Groc~
##  9 US               United States  Alabama      <NA>         2020-02-16 Parks
## 10 US               United States  Alabama      <NA>         2020-02-16 Tran~
## # ... with 32,120 more rows, and 1 more variable: pct_diff <int>
…
